2.32.0.0/12
2.56.92.0/22
2.56.128.0/22
2.57.32.0/22
2.57.84.0/22
2.58.136.0/22
2.58.184.0/22
2.58.208.0/22
2.59.4.0/22
2.59.140.0/22
2.59.228.0/22
2.112.0.0/13
2.156.0.0/14
2.192.0.0/13
2.224.0.0/12
5.2.0.0/20
5.8.96.0/19
5.11.32.0/21
5.11.96.0/19
5.23.32.0/21
5.28.8.0/21
5.34.184.0/21
5.42.144.0/21
5.43.232.0/21
5.43.248.0/21
5.56.8.0/21
5.61.0.0/21
5.61.192.0/21
5.61.216.0/21
5.62.72.0/21
5.63.136.0/21
5.63.168.0/21
5.77.64.0/18
5.83.104.0/21
5.83.120.0/21
5.84.0.0/14
5.88.0.0/13
5.96.0.0/14
5.100.232.0/21
5.102.0.0/19
5.104.24.0/21
5.133.48.0/20
5.133.96.0/22
5.134.120.0/21
5.144.160.0/20
5.144.184.0/21
5.145.120.0/21
5.150.128.0/20
5.152.128.0/19
5.152.240.0/21
5.154.192.0/19
5.157.96.0/19
5.158.64.0/20
5.168.0.0/14
5.172.64.0/18
5.172.208.0/21
5.175.32.0/21
5.175.48.0/21
5.175.64.0/20
5.178.40.0/21
5.178.88.0/21
5.178.120.0/21
5.179.128.0/18
5.180.68.0/22
5.180.108.0/22
5.180.168.0/22
5.180.204.0/22
5.181.144.0/22
5.181.192.0/22
5.182.68.0/22
5.182.240.0/22
5.183.108.0/22
5.198.224.0/20
5.249.128.0/19
5.252.16.0/22
5.252.44.0/22
5.252.84.0/22
5.252.240.0/22
5.253.48.0/22
5.253.196.0/22
5.253.212.0/22
31.3.160.0/19
31.7.144.0/20
31.10.48.0/21
31.11.32.0/21
31.12.8.0/21
31.13.136.0/21
31.14.28.0/24
31.14.128.0/20
31.14.183.0/24
31.14.184.0/21
31.14.233.0/24
31.15.72.0/21
31.15.96.0/21
31.24.136.0/21
31.25.32.0/21
31.26.0.0/15
31.31.40.0/21
31.44.16.0/20
31.44.112.0/20
31.44.160.0/20
31.129.125.0/24
31.131.240.0/21
31.132.40.0/22
31.132.48.0/22
31.156.0.0/14
31.169.104.0/21
31.170.40.0/21
31.171.136.0/21
31.177.40.0/21
31.177.112.0/21
31.185.16.0/21
31.185.96.0/21
31.186.40.0/21
31.187.104.0/21
31.188.0.0/14
31.193.16.0/20
31.193.56.0/21
31.194.0.0/15
31.196.0.0/14
31.207.96.0/19
31.214.153.0/24
31.216.128.0/22
31.216.152.0/21
31.216.240.0/20
31.217.200.0/21
31.223.240.0/20
37.9.224.0/20
37.10.80.0/20
37.16.88.0/22
37.32.80.0/20
37.32.104.0/21
37.34.32.0/21
37.34.40.0/21
37.34.72.0/21
37.60.32.0/21
37.72.32.0/21
37.77.96.0/21
37.77.112.0/20
37.77.136.0/21
37.77.160.0/21
37.77.208.0/20
37.99.208.0/21
37.99.224.0/19
37.100.0.0/14
37.114.8.0/21
37.116.0.0/14
37.123.240.0/21
37.128.136.0/21
37.130.152.0/21
37.130.216.0/21
37.139.88.0/21
37.143.128.0/22
37.148.224.0/21
37.153.135.0/24
37.156.96.0/22
37.156.148.0/22
37.156.168.0/22
37.156.208.0/22
37.159.0.0/16
37.176.0.0/13
37.186.128.0/18
37.186.192.0/18
37.200.80.0/22
37.202.16.0/21
37.203.224.0/20
37.205.128.0/17
37.206.0.0/15
37.209.200.0/21
37.220.40.0/21
37.221.96.0/22
37.226.0.0/15
37.247.48.0/21
45.9.224.0/22
45.10.84.0/22
45.10.220.0/22
45.11.116.0/22
45.13.68.0/22
45.13.80.0/22
45.13.88.0/22
45.13.120.0/22
45.13.128.0/22
45.13.144.0/22
45.14.152.0/22
45.14.160.0/22
45.14.184.0/22
45.15.92.0/22
45.15.244.0/22
45.33.224.0/20
45.66.16.0/22
45.66.80.0/22
45.66.100.0/22
45.66.144.0/22
45.66.204.0/22
45.67.40.0/22
45.67.112.0/22
45.67.124.0/22
45.81.64.0/22
45.81.156.0/22
45.82.0.0/22
45.82.112.0/22
45.82.132.0/22
45.82.168.0/22
45.82.200.0/22
45.82.228.0/22
45.84.168.0/22
45.85.16.0/22
45.85.164.0/22
45.86.84.0/22
45.86.108.0/22
45.87.36.0/22
45.87.64.0/22
45.89.120.0/22
45.89.180.0/22
45.90.92.0/22
45.90.124.0/22
45.90.168.0/22
45.90.232.0/22
45.90.240.0/22
45.91.184.0/22
45.92.56.0/22
45.92.148.0/22
45.93.36.0/22
45.93.204.0/22
45.94.0.0/22
45.94.96.0/22
45.95.8.0/22
45.95.192.0/22
45.128.240.0/22
45.129.160.0/22
45.129.220.0/22
45.129.248.0/22
45.130.88.0/22
45.130.108.0/22
45.131.8.0/22
45.131.220.0/22
45.131.236.0/22
45.131.252.0/22
45.132.208.0/22
45.132.212.0/22
45.132.220.0/22
45.133.12.0/22
45.133.144.0/22
45.133.212.0/22
45.135.24.0/22
45.135.68.0/22
45.135.116.0/22
45.137.232.0/22
45.138.68.0/22
45.138.188.0/22
45.138.196.0/22
45.138.200.0/22
45.139.96.0/22
45.139.100.0/22
45.139.104.0/22
45.139.120.0/22
45.140.84.0/22
45.140.88.0/22
45.140.196.0/22
45.141.40.0/22
45.141.228.0/22
45.142.132.0/22
45.142.168.0/22
45.142.184.0/22
45.143.180.0/22
45.144.60.0/22
45.144.100.0/22
45.144.140.0/22
45.145.24.0/22
45.145.68.0/22
45.145.204.0/22
45.145.212.0/22
45.145.228.0/22
45.147.236.0/22
45.148.8.0/22
45.148.20.0/22
45.148.212.0/22
45.149.232.0/22
45.150.200.0/22
45.152.64.0/22
45.152.128.0/22
45.152.144.0/22
45.154.72.0/22
45.155.8.0/22
45.156.60.0/22
45.156.64.0/22
45.157.64.0/22
45.157.228.0/22
45.159.36.0/22
45.159.60.0/22
45.159.64.0/22
46.16.88.0/21
46.16.168.0/21
46.17.152.0/21
46.18.24.0/21
46.18.136.0/21
46.18.232.0/21
46.19.48.0/21
46.19.232.0/21
46.20.80.0/20
46.21.176.0/20
46.23.192.0/20
46.28.0.0/21
46.28.15.0/24
46.28.24.0/21
46.28.120.0/21
46.29.104.0/21
46.29.200.0/21
46.30.168.0/21
46.30.216.0/21
46.30.240.0/21
46.30.248.0/21
46.31.104.0/21
46.31.128.0/21
46.31.248.0/21
46.37.0.0/19
46.37.224.0/19
46.44.192.0/18
46.102.101.0/24
46.102.112.0/22
46.102.188.0/23
46.141.0.0/16
46.149.97.0/24
46.149.102.0/24
46.149.108.0/24
46.149.168.0/22
46.182.88.0/21
46.182.152.0/21
46.182.232.0/21
46.183.232.0/21
46.226.176.0/21
46.226.200.0/21
46.227.0.0/21
46.227.152.0/21
46.228.240.0/20
46.229.80.0/20
46.231.24.0/21
46.231.32.0/21
46.232.136.0/21
46.232.144.0/21
46.233.128.0/18
46.234.192.0/19
46.234.224.0/19
46.235.136.0/21
46.243.32.0/21
46.252.144.0/20
46.254.32.0/21
46.254.40.0/21
46.254.152.0/22
46.254.156.0/22
46.254.176.0/21
46.254.232.0/21
46.255.80.0/21
46.255.240.0/21
51.179.0.0/17
52.144.64.0/19
62.10.0.0/15
62.13.160.0/19
62.18.0.0/15
62.48.32.0/19
62.69.128.0/21
62.77.32.0/19
62.85.160.0/19
62.85.192.0/18
62.86.0.0/16
62.94.0.0/16
62.97.0.0/19
62.97.32.0/19
62.98.0.0/16
62.100.64.0/19
62.101.0.0/19
62.101.64.0/18
62.102.152.0/21
62.108.224.0/19
62.110.0.0/16
62.122.72.0/22
62.123.0.0/16
62.128.64.0/19
62.149.128.0/19
62.149.160.0/19
62.149.192.0/18
62.152.96.0/19
62.169.32.0/19
62.170.0.0/16
62.173.160.0/19
62.177.0.0/19
62.196.0.0/16
62.205.0.0/19
62.211.0.0/16
62.212.0.0/19
62.220.64.0/20
62.220.80.0/20
62.221.160.0/19
62.241.0.0/19
62.249.32.0/19
69.172.96.0/19
77.32.0.0/17
77.39.128.0/19
77.39.160.0/19
77.39.192.0/20
77.39.208.0/21
77.39.216.0/22
77.39.220.0/22
77.39.224.0/19
77.43.0.0/17
77.72.24.0/21
77.72.32.0/21
77.72.192.0/21
77.73.56.0/21
77.74.16.0/21
77.74.144.0/21
77.81.143.0/24
77.81.224.0/20
77.83.12.0/22
77.83.216.0/22
77.83.224.0/22
77.89.0.0/18
77.93.224.0/19
77.94.64.0/23
77.94.66.0/23
77.94.68.0/22
77.94.72.0/21
77.94.80.0/20
77.95.136.0/21
77.95.168.0/21
77.95.208.0/21
77.108.0.0/18
77.220.64.0/19
77.223.0.0/19
77.238.0.0/19
77.239.128.0/19
77.240.224.0/20
77.241.0.0/20
77.241.208.0/20
77.242.32.0/20
77.242.128.0/20
77.242.176.0/20
77.244.80.0/20
77.244.176.0/20
77.246.0.0/20
78.4.0.0/14
78.12.0.0/14
78.24.80.0/21
78.26.64.0/18
78.40.128.0/21
78.40.160.0/21
78.40.168.0/21
78.40.200.0/21
78.110.176.0/20
78.134.0.0/17
78.138.32.0/22
78.142.196.0/22
78.152.96.0/19
78.159.144.0/22
78.159.192.0/21
78.159.200.0/21
78.159.208.0/21
78.159.216.0/21
79.0.0.0/10
79.98.0.0/21
79.98.40.0/21
79.99.8.0/21
79.99.112.0/21
79.135.32.0/19
79.140.80.0/20
79.141.176.0/20
79.143.112.0/20
79.171.160.0/21
80.16.0.0/13
80.64.112.0/20
80.64.212.0/22
80.65.144.0/20
80.66.208.0/20
80.67.112.0/20
80.68.144.0/20
80.68.176.0/20
80.68.192.0/20
80.69.240.0/20
80.70.112.0/22
80.70.116.0/22
80.71.224.0/20
80.72.160.0/20
80.73.224.0/20
80.74.176.0/20
80.76.16.0/20
80.76.64.0/20
80.76.80.0/20
80.79.48.0/20
80.82.0.0/20
80.83.160.0/20
80.84.96.0/20
80.86.48.0/20
80.86.144.0/20
80.88.80.0/20
80.88.160.0/20
80.91.48.0/20
80.93.64.0/20
80.93.128.0/20
80.94.112.0/20
80.104.0.0/15
80.116.0.0/15
80.180.0.0/14
80.204.0.0/14
80.208.248.0/22
80.210.96.0/19
80.211.0.0/16
80.241.136.0/22
80.241.140.0/22
80.241.160.0/20
80.241.224.0/20
80.244.112.0/20
80.247.64.0/20
80.249.32.0/20
80.252.192.0/20
80.252.224.0/20
80.253.32.0/20
80.254.192.0/20
81.16.220.0/22
81.21.16.0/20
81.21.128.0/21
81.22.224.0/22
81.23.80.0/20
81.24.224.0/20
81.25.72.0/22
81.25.96.0/20
81.26.192.0/21
81.27.128.0/20
81.27.176.0/20
81.29.176.0/22
81.29.180.0/22
81.29.184.0/21
81.29.192.0/20
81.29.208.0/20
81.29.224.0/20
81.30.0.0/20
81.30.16.0/20
81.31.144.0/20
81.72.0.0/14
81.81.0.0/16
81.88.48.0/20
81.88.224.0/20
81.88.240.0/20
81.92.32.0/20
81.93.32.0/20
81.112.0.0/13
81.120.0.0/14
81.124.0.0/15
81.126.0.0/15
81.161.232.0/22
81.173.36.0/22
81.173.100.0/22
81.174.0.0/18
81.174.64.0/18
81.200.128.0/20
81.200.224.0/20
81.201.0.0/20
81.208.0.0/17
82.48.0.0/12
82.84.0.0/15
82.88.0.0/14
82.97.224.0/20
82.104.0.0/14
82.112.192.0/19
82.113.192.0/19
82.115.160.0/19
82.119.32.0/19
82.119.192.0/19
82.143.0.0/18
82.145.96.0/19
82.145.160.0/19
82.149.32.0/19
82.163.32.0/22
82.184.0.0/13
82.193.0.0/19
82.193.32.0/19
82.213.64.0/18
82.215.128.0/18
83.103.0.0/17
83.136.104.0/21
83.136.221.0/24
83.137.56.0/21
83.137.104.0/21
83.137.160.0/21
83.137.232.0/21
83.139.192.0/21
83.139.200.0/23
83.139.202.0/23
83.139.204.0/22
83.139.208.0/22
83.139.212.0/22
83.139.216.0/22
83.139.220.0/23
83.139.222.0/23
83.139.224.0/20
83.139.240.0/23
83.139.242.0/23
83.139.244.0/23
83.139.246.0/23
83.139.248.0/21
83.147.64.0/18
83.149.128.0/18
83.171.196.0/22
83.174.144.0/22
83.175.0.0/18
83.211.0.0/16
83.216.160.0/19
83.220.0.0/19
83.221.96.0/19
83.224.0.0/15
83.229.8.0/22
84.18.128.0/19
84.21.176.0/22
84.33.0.0/18
84.33.64.0/18
84.33.128.0/18
84.33.192.0/18
84.38.48.0/20
84.220.0.0/14
84.234.100.0/22
84.240.128.0/18
84.246.144.0/21
84.247.192.0/18
84.253.128.0/18
84.254.128.0/18
85.18.0.0/16
85.20.0.0/16
85.31.160.0/21
85.32.0.0/12
85.88.192.0/19
85.89.128.0/19
85.94.192.0/19
85.115.196.0/22
85.116.128.0/21
85.116.136.0/22
85.116.140.0/22
85.116.144.0/22
85.116.148.0/22
85.116.152.0/21
85.116.224.0/19
85.118.144.0/21
85.119.40.0/21
85.119.176.0/21
85.158.80.0/21
85.159.115.0/24
85.159.118.0/24
85.159.144.0/21
85.159.176.0/21
85.159.192.0/21
85.159.200.0/21
85.204.42.0/24
85.204.112.0/22
85.204.119.0/24
85.204.147.0/24
85.204.172.0/22
85.208.76.0/22
85.208.132.0/22
85.208.200.0/22
85.208.232.0/22
85.208.240.0/22
85.209.112.0/22
85.209.216.0/22
85.235.128.0/19
85.239.160.0/19
86.104.6.0/24
86.104.135.0/24
86.104.229.0/24
86.105.8.0/24
86.105.48.0/21
86.105.177.0/24
86.105.179.0/24
86.105.236.0/22
86.107.96.0/22
86.107.110.0/24
86.109.128.0/19
86.110.128.0/19
87.0.0.0/11
87.237.167.0/24
87.238.0.0/19
87.241.0.0/18
87.247.232.0/21
87.248.32.0/19
87.250.64.0/19
87.252.106.0/23
87.253.96.0/19
88.32.0.0/11
88.80.64.0/19
88.81.160.0/19
88.86.160.0/19
88.87.96.0/19
88.147.0.0/17
88.149.128.0/17
88.202.0.0/17
88.214.44.0/22
88.218.100.0/22
89.17.160.0/19
89.21.192.0/19
89.31.48.0/21
89.31.72.0/21
89.31.200.0/21
89.32.152.0/23
89.32.156.0/22
89.32.168.0/23
89.32.186.0/23
89.33.133.0/24
89.33.232.0/24
89.34.6.0/24
89.34.161.0/24
89.34.236.0/23
89.34.239.0/24
89.35.168.0/22
89.35.206.0/23
89.36.155.0/24
89.36.204.0/22
89.36.208.0/20
89.36.228.0/24
89.38.144.0/21
89.39.92.0/24
89.39.200.0/23
89.39.224.0/20
89.40.112.0/20
89.40.142.0/23
89.40.172.0/22
89.40.227.0/24
89.40.234.0/23
89.42.0.0/21
89.42.25.0/24
89.42.134.0/24
89.42.230.0/24
89.43.192.0/24
89.44.189.0/24
89.44.206.0/24
89.45.24.0/21
89.45.95.0/24
89.45.212.0/22
89.45.216.0/22
89.45.229.0/24
89.46.64.0/21
89.46.72.0/21
89.46.104.0/21
89.46.192.0/21
89.47.32.0/23
89.96.0.0/15
89.105.64.0/19
89.107.88.0/21
89.107.104.0/21
89.118.0.0/15
89.148.128.0/18
89.150.32.0/19
89.184.96.0/19
89.186.64.0/19
89.188.128.0/19
89.189.32.0/20
89.189.48.0/21
89.189.56.0/21
89.190.160.0/19
89.200.244.0/24
89.207.80.0/21
89.207.104.0/21
89.221.32.0/20
89.221.128.0/20
89.221.144.0/20
89.249.176.0/21
89.251.176.0/20
90.147.0.0/16
91.80.0.0/15
91.102.48.0/21
91.102.128.0/21
91.109.48.0/21
91.109.56.0/21
91.109.168.0/21
91.109.192.0/21
91.142.64.0/21
91.142.143.0/24
91.143.192.0/20
91.187.192.0/19
91.188.0.0/19
91.189.212.0/22
91.192.24.0/22
91.192.124.0/22
91.193.44.0/22
91.194.142.0/23
91.196.16.0/22
91.196.64.0/22
91.197.196.0/22
91.198.84.0/24
91.198.141.0/24
91.198.147.0/24
91.198.158.0/24
91.198.167.0/24
91.199.2.0/24
91.199.36.0/24
91.199.170.0/24
91.199.173.0/24
91.199.211.0/24
91.199.223.0/24
91.199.248.0/24
91.200.128.0/22
91.200.179.0/24
91.200.208.0/22
91.201.64.0/22
91.201.104.0/24
91.203.220.0/24
91.204.248.0/22
91.205.80.0/22
91.206.74.0/23
91.206.128.0/23
91.206.231.0/24
91.207.150.0/23
91.208.14.0/24
91.208.152.0/24
91.208.195.0/24
91.209.97.0/24
91.209.143.0/24
91.209.194.0/24
91.210.212.0/22
91.211.156.0/22
91.212.72.0/23
91.212.160.0/23
91.212.167.0/24
91.212.219.0/24
91.212.241.0/24
91.212.249.0/24
91.213.7.0/24
91.213.129.0/24
91.213.153.0/24
91.213.197.0/24
91.213.210.0/24
91.214.60.0/22
91.214.72.0/22
91.216.17.0/24
91.216.38.0/24
91.216.102.0/24
91.216.127.0/24
91.218.224.0/22
91.220.4.0/24
91.220.142.0/24
91.220.168.0/24
91.221.32.0/23
91.221.236.0/23
91.223.12.0/24
91.223.155.0/24
91.224.72.0/23
91.225.180.0/22
91.225.244.0/22
91.226.74.0/23
91.226.108.0/23
91.226.147.0/24
91.227.109.0/24
91.229.188.0/24
91.230.96.0/24
91.230.102.0/23
91.230.145.0/24
91.231.62.0/24
91.231.164.0/22
91.231.172.0/23
91.231.179.0/24
91.232.152.0/24
91.232.180.0/24
91.233.180.0/23
91.233.252.0/22
91.234.237.0/24
91.235.120.0/23
91.237.16.0/23
91.238.33.0/24
91.238.83.0/24
91.238.84.0/24
91.238.112.0/24
91.238.116.0/22
91.238.250.0/24
91.240.166.0/23
91.240.214.0/23
91.240.230.0/23
91.241.14.0/23
91.241.76.0/23
91.241.86.0/23
91.252.0.0/14
92.39.144.0/20
92.42.20.0/22
92.42.80.0/21
92.42.96.0/21
92.43.240.0/21
92.60.64.0/20
92.62.80.0/20
92.63.224.0/20
92.118.208.0/22
92.119.48.0/22
92.119.132.0/22
92.119.224.0/22
92.223.128.0/17
92.242.172.0/22
92.243.128.0/19
92.245.160.0/22
92.245.164.0/22
92.245.168.0/21
92.245.176.0/22
92.245.180.0/22
92.245.184.0/22
92.245.188.0/24
92.245.189.0/24
92.245.190.0/23
92.246.32.0/19
92.246.96.0/21
92.246.104.0/21
92.246.112.0/20
93.32.0.0/11
93.64.0.0/13
93.88.32.0/20
93.88.96.0/20
93.88.112.0/20
93.89.48.0/20
93.91.128.0/20
93.92.72.0/21
93.92.152.0/21
93.92.184.0/21
93.92.240.0/21
93.93.16.0/21
93.93.160.0/21
93.94.24.0/21
93.94.32.0/21
93.94.88.0/21
93.95.208.0/21
93.95.216.0/21
93.101.0.0/16
93.113.46.0/24
93.113.89.0/24
93.114.170.0/24
93.114.245.0/24
93.115.62.0/23
93.115.154.0/24
93.115.170.0/23
93.115.210.0/24
93.117.152.0/23
93.117.172.0/23
93.118.37.0/24
93.119.20.0/22
93.119.194.0/24
93.144.0.0/13
93.157.185.0/24
93.174.64.0/21
93.175.248.0/22
93.177.82.0/24
93.177.83.0/24
93.179.128.0/18
93.185.112.0/20
93.186.80.0/20
93.186.128.0/20
93.186.240.0/20
93.187.24.0/21
93.187.88.0/21
93.188.96.0/21
93.188.112.0/21
93.188.224.0/21
93.189.136.0/21
93.189.184.0/21
93.189.208.0/21
93.191.240.0/21
94.32.0.0/13
94.73.64.0/18
94.74.0.0/18
94.80.0.0/12
94.100.32.0/20
94.101.48.0/20
94.102.128.0/20
94.103.112.0/22
94.124.32.0/21
94.124.48.0/21
94.124.112.0/24
94.125.80.0/21
94.125.232.0/21
94.126.8.0/21
94.126.56.0/21
94.126.136.0/21
94.126.184.0/21
94.127.40.0/21
94.127.80.0/21
94.127.232.0/21
94.138.32.0/19
94.138.160.0/19
94.140.28.0/22
94.141.0.0/19
94.142.144.0/21
94.142.176.0/22
94.142.192.0/21
94.143.96.0/21
94.143.152.0/21
94.154.1.0/24
94.154.140.0/22
94.158.184.0/22
94.160.0.0/13
94.176.44.0/22
94.176.131.0/24
94.176.151.0/24
94.176.184.0/23
94.177.18.0/23
94.177.21.0/24
94.177.68.0/22
94.177.114.0/23
94.177.127.0/24
94.177.151.0/24
94.177.160.0/19
94.177.192.0/18
94.185.72.0/21
94.185.96.0/19
94.198.72.0/21
94.198.96.0/21
94.198.208.0/21
94.199.8.0/21
94.199.80.0/21
94.230.64.0/21
94.230.72.0/21
94.231.196.0/24
94.231.197.0/24
94.231.204.0/24
94.231.207.0/24
94.247.8.0/21
94.247.184.0/21
94.250.240.0/22
95.74.0.0/15
95.87.120.0/21
95.110.128.0/17
95.130.136.0/21
95.131.40.0/21
95.131.56.0/21
95.140.128.0/21
95.140.136.0/21
95.141.32.0/20
95.142.176.0/20
95.142.208.0/21
95.142.216.0/21
95.143.96.0/20
95.157.64.0/18
95.169.64.0/19
95.171.32.0/19
95.174.0.0/19
95.210.0.0/16
95.214.88.0/22
95.224.0.0/11
101.56.0.0/13
104.153.164.0/23
109.52.0.0/14
109.68.24.0/21
109.68.152.0/21
109.69.128.0/21
109.69.144.0/21
109.69.200.0/21
109.70.72.0/21
109.70.120.0/21
109.70.200.0/21
109.70.240.0/21
109.71.232.0/21
109.73.80.0/20
109.73.176.0/20
109.75.112.0/20
109.104.224.0/21
109.104.232.0/21
109.104.240.0/20
109.106.28.0/22
109.112.0.0/13
109.168.0.0/17
109.205.16.0/21
109.205.104.0/21
109.230.212.0/24
109.232.32.0/21
109.232.48.0/21
109.232.136.0/21
109.233.96.0/21
109.233.120.0/21
109.233.128.0/21
109.233.216.0/21
109.234.48.0/21
109.234.56.0/21
109.234.136.0/21
109.235.152.0/21
109.236.16.0/20
109.236.48.0/22
109.237.160.0/20
109.238.16.0/20
109.238.112.0/20
109.239.240.0/20
128.0.122.0/23
128.0.124.0/22
128.45.0.0/16
128.65.112.0/20
128.65.200.0/21
128.66.0.0/15
128.116.128.0/17
128.127.0.0/21
128.127.56.0/21
130.0.128.0/18
130.0.208.0/21
130.25.0.0/16
130.136.0.0/16
130.186.0.0/19
130.186.32.0/19
130.186.64.0/18
130.186.128.0/17
130.192.0.0/18
130.192.64.0/19
130.192.96.0-130.192.159.255
130.192.160.0/21
130.192.168.0/21
130.192.176.0/20
130.192.192.0/19
130.192.224.0/20
130.192.240.0/20
130.193.72.0/21
130.251.0.0/16
130.255.96.0/21
130.255.112.0/21
130.255.144.0/21
130.255.168.0/21
131.1.0.0/16
131.114.0.0/16
131.154.0.0/16
131.175.0.0/16
134.0.0.0/21
134.19.168.0/21
134.90.224.0/19
134.255.160.0/20
134.255.176.0/21
137.204.0.0/16
138.41.0.0/16
138.66.0.0/16
138.70.0.0/16
138.132.0.0/16
139.28.80.0/22
139.28.148.0/22
139.28.156.0/22
139.128.0.0/16
140.105.0.0/16
140.164.0.0/16
141.98.124.0/22
141.98.200.0/22
141.105.152.0/21
141.108.0.0/16
141.138.80.0/21
141.250.0.0/16
143.225.0.0/16
146.0.208.0/22
146.48.0.0/16
146.100.0.0/16
146.133.0.0/16
146.241.0.0/16
146.247.16.0/21
146.247.64.0/21
146.255.160.0/21
147.78.184.0/22
147.78.212.0/22
147.78.252.0/22
147.122.0.0/16
147.123.0.0/16
147.162.0.0/16
147.163.0.0/16
149.3.144.0/21
149.3.169.0/24
149.3.176.0/21
149.62.128.0/20
149.62.184.0/21
149.132.0.0/16
149.139.0.0/16
149.154.88.0/21
150.145.0.0/16
150.146.0.0/16
150.178.0.0/16
150.217.0.0/16
151.0.128.0/17
151.1.0.0/16
151.2.0.0/17
151.3.0.0-151.79.255.255
151.80.0.0/16
151.81.0.0-151.84.255.255
151.85.0.0/16
151.86.0.0/16
151.87.0.0/16
151.88.0.0/16
151.89.0.0/16
151.90.0.0/16
151.91.0.0/16
151.92.0.0/16
151.93.0.0/16
151.94.0.0/16
151.95.0.0/16
151.96.0.0/16
151.97.0.0/16
151.98.0.0/16
151.99.0.0/16
151.100.0.0/16
151.216.2.0/24
151.248.8.0/21
152.89.68.0/22
155.185.0.0/16
155.253.0.0/16
156.14.0.0/16
156.54.0.0/16
156.67.20.0/22
156.148.0.0/16
157.27.0.0/16
157.28.0.0/15
157.97.160.0-157.97.162.255
157.138.0.0-157.138.199.255
157.138.200.0-157.138.255.255
158.47.0.0/16
158.58.136.0/21
158.58.168.0/21
158.102.0.0/16
158.110.0.0/16
158.148.0.0/16
158.255.192.0/20
158.255.240.0/21
159.20.128.0/17
159.149.0.0/16
159.210.0.0/16
159.213.0.0/16
159.253.96.0/21
159.253.184.0/21
159.255.128.0/21
159.255.136.0/21
159.255.144.0/20
160.66.0.0/16
160.78.0.0/16
160.80.0.0/16
160.97.0.0/16
160.180.0.0/16
160.202.28.0/22
160.220.0.0/16
160.238.112.0/22
161.27.0.0/16
161.147.0.0/16
163.162.0.0/16
164.130.0.0/16
164.138.48.0/21
164.142.0.0/16
168.202.0.0/16
171.22.44.0/22
171.22.92.0/22
171.22.208.0/22
171.22.232.0/22
171.22.252.0/22
171.25.191.0/24
176.10.0.0/19
176.10.56.0/21
176.12.88.0/21
176.32.16.0/20
176.32.56.0/21
176.57.112.0/20
176.58.80.0/21
176.62.48.0/20
176.62.152.0/21
176.65.80.0/20
176.101.171.0/24
176.103.248.0/21
176.105.156.0/22
176.107.128.0/19
176.110.96.0/22
176.115.168.0/21
176.115.184.0/21
176.119.196.0/24
176.119.201.0/24
176.119.217.0/24
176.122.196.0-176.122.198.255
176.200.0.0/15
176.206.0.0/15
176.223.88.0/21
176.223.164.0/24
176.223.189.0/24
176.227.128.0/20
176.227.168.0/21
176.242.0.0/15
176.244.0.0/14
178.19.144.0/20
178.19.160.0/21
178.19.168.0/22
178.19.172.0/22
178.20.32.0/21
178.20.72.0/21
178.20.112.0/21
178.21.96.0/21
178.21.200.0/21
178.22.184.0/21
178.22.248.0/21
178.23.8.0/21
178.23.200.0/21
178.23.248.0/21
178.132.88.0/21
178.132.104.0/21
178.157.2.0/23
178.211.64.0/19
178.212.136.0/21
178.217.235.0/24
178.218.148.0/22
178.218.192.0/24
178.219.64.0/20
178.236.160.0/20
178.237.0.0/20
178.238.48.0/20
178.239.32.0/20
178.239.176.0/20
178.248.88.0/21
178.248.144.0/21
178.248.176.0/21
178.249.184.0/21
178.249.200.0/21
178.249.216.0/21
178.249.224.0/21
178.250.64.0/21
178.250.200.0/21
178.251.72.0/21
178.255.72.0/21
178.255.116.0/22
178.255.184.0/21
178.255.240.0/21
185.1.46.0/24
185.1.80.0/24
185.1.97.0/24
185.1.106.0/24
185.1.114.0/24
185.1.115.0/24
185.1.124.0/24
185.1.139.0/24
185.1.186.0/24
185.2.4.0/22
185.2.144.0/22
185.3.36.0/22
185.3.88.0/22
185.3.108.0/22
185.3.252.0/22
185.4.140.0/22
185.4.152.0/22
185.5.60.0/22
185.5.92.0/22
185.5.112.0/22
185.5.180.0/22
185.5.196.0/22
185.5.200.0/22
185.5.208.0/22
185.5.244.0/22
185.6.72.0/22
185.6.88.0/22
185.6.192.0/22
185.6.240.0/22
185.7.112.0/22
185.8.24.0/22
185.8.36.0/22
185.8.120.0/22
185.8.148.0/22
185.8.196.0/22
185.9.52.0/22
185.9.148.0/22
185.9.208.0/22
185.10.32.0/22
185.10.76.0/22
185.10.188.0/22
185.11.20.0/22
185.11.52.0/22
185.11.152.0/22
185.11.192.0/22
185.11.224.0/22
185.11.232.0/22
185.13.164.0/22
185.13.220.0/22
185.13.252.0/22
185.14.8.0/22
185.14.76.0/22
185.14.236.0/22
185.15.160.0/22
185.15.168.0/22
185.16.132.0/22
185.16.248.0/24
185.17.20.0/22
185.17.48.0/22
185.17.104.0/23
185.17.106.0/23
185.17.156.0/22
185.18.24.0/22
185.18.232.0/22
185.18.240.0/22
185.19.128.0/22
185.19.140.0/22
185.19.164.0/22
185.19.184.0/22
185.20.64.0/22
185.21.24.0/22
185.21.72.0/22
185.21.172.0/22
185.21.248.0/22
185.22.36.0/22
185.22.84.0/22
185.22.228.0/22
185.23.28.0/22
185.23.84.0/22
185.24.116.0/22
185.25.72.0/22
185.25.128.0/22
185.25.136.0/22
185.25.204.0/22
185.25.232.0/22
185.26.64.0/22
185.26.140.0/22
185.26.196.0/22
185.27.72.0/22
185.28.52.0/22
185.28.64.0/22
185.28.80.0/22
185.29.72.0/22
185.29.96.0/22
185.29.104.0/22
185.29.144.0/22
185.29.160.0/22
185.29.204.0/22
185.29.248.0/22
185.30.44.0/22
185.30.60.0/22
185.30.64.0/22
185.30.68.0/22
185.30.80.0/22
185.30.108.0/22
185.30.112.0/22
185.30.180.0/22
185.30.188.0/22
185.31.56.0/22
185.31.64.0/22
185.33.56.0/22
185.33.108.0/22
185.34.36.0/22
185.34.84.0/22
185.34.136.0/22
185.34.204.0/22
185.34.248.0/22
185.36.52.0/22
185.36.72.0/22
185.36.128.0/22
185.37.44.0/22
185.37.80.0/22
185.37.92.0/22
185.37.116.0/22
185.37.180.0/22
185.37.204.0/22
185.38.136.0/22
185.38.252.0/22
185.39.24.0/22
185.39.100.0/22
185.39.188.0/22
185.39.240.0/22
185.40.12.0/22
185.40.212.0/22
185.40.220.0/22
185.41.32.0/22
185.41.72.0/22
185.41.164.0/22
185.41.212.0/22
185.41.252.0/22
185.42.160.0/22
185.43.16.0/22
185.43.148.0/22
185.43.164.0/22
185.44.180.0/22
185.44.212.0/22
185.44.220.0/22
185.46.24.0/22
185.46.68.0/22
185.46.100.0/22
185.46.140.0/22
185.47.96.0/22
185.47.108.0/22
185.47.136.0/22
185.47.228.0/22
185.48.32.0/22
185.48.52.0/22
185.48.140.0/22
185.49.8.0/22
185.49.56.0/22
185.49.204.0/22
185.49.212.0/22
185.49.248.0/22
185.51.12.0/22
185.51.120.0/22
185.51.136.0/22
185.51.168.0/22
185.52.8.0/22
185.52.64.0/22
185.52.112.0/22
185.52.240.0/22
185.53.0.0/22
185.53.36.0/22
185.53.68.0/22
185.53.120.0/22
185.53.148.0/22
185.53.192.0/22
185.53.252.0/22
185.54.32.0/22
185.54.152.0/22
185.54.212.0/22
185.55.80.0/22
185.55.88.0/22
185.55.168.0/22
185.55.212.0/22
185.56.0.0/22
185.56.8.0/22
185.56.120.0/22
185.56.156.0/22
185.56.168.0/22
185.56.216.0/23
185.56.218.0/23
185.57.20.0/22
185.57.108.0/22
185.57.208.0/22
185.57.232.0/22
185.58.4.0/22
185.58.44.0/22
185.58.104.0/22
185.58.116.0/22
185.58.120.0/22
185.58.132.0/22
185.58.192.0/22
185.58.224.0/22
185.59.20.0/22
185.59.80.0/22
185.59.96.0/22
185.59.132.0/22
185.59.152.0/22
185.59.164.0/22
185.60.140.0/22
185.60.188.0/22
185.60.192.0/22
185.60.240.0/22
185.61.12.0/22
185.61.168.0/22
185.61.180.0/22
185.62.0.0/22
185.62.28.0/22
185.62.48.0/22
185.62.52.0/22
185.62.240.0/22
185.62.248.0/22
185.63.12.0/22
185.63.40.0/22
185.63.52.0/22
185.63.87.0/24
185.63.88.0/22
185.63.100.0/22
185.63.132.0/22
185.63.160.0/22
185.63.168.0/22
185.63.228.0/22
185.64.5.0/24
185.64.68.0/22
185.64.204.0/22
185.65.44.0/22
185.65.76.0/24
185.65.141.0/24
185.65.216.0/22
185.66.24.0/22
185.67.236.0/22
185.68.176.0/22
185.68.190.0/23
185.68.192.0/22
185.69.188.0/22
185.70.116.0/22
185.70.148.0/22
185.70.200.0/22
185.71.8.0/22
185.71.44.0/22
185.71.244.0/22
185.72.40.0/22
185.72.76.0/22
185.73.136.0/22
185.73.164.0/22
185.73.227.0/24
185.73.244.0/22
185.73.248.0/22
185.74.36.0/22
185.74.188.0/22
185.74.248.0/22
185.75.108.0/22
185.76.56.0/22
185.76.100.0/22
185.76.140.0/22
185.77.32.0/22
185.77.48.0/22
185.77.84.0/22
185.77.160.0/22
185.78.16.0/22
185.78.48.0/22
185.78.64.0/22
185.79.52.0/22
185.80.31.0/24
185.81.0.0/22
185.81.4.0/22
185.82.0.0/22
185.82.112.0/22
185.82.132.0/22
185.82.168.0/22
185.82.224.0/22
185.83.172.0/22
185.84.84.0/22
185.84.88.0/22
185.84.96.0/22
185.84.168.0/22
185.84.176.0/22
185.84.228.0/22
185.85.20.0/22
185.85.24.0/22
185.85.192.0/22
185.85.212.0/22
185.86.84.0/22
185.86.128.0/22
185.86.200.0/22
185.87.28.0/22
185.87.68.0/22
185.87.76.0/22
185.87.240.0/22
185.88.84.0/22
185.88.168.0/22
185.88.204.0/22
185.88.240.0/22
185.89.44.0/22
185.89.180.0/22
185.90.8.0/22
185.90.68.0/22
185.90.116.0/22
185.90.188.0/22
185.91.56.0/22
185.91.60.0/22
185.91.148.0/22
185.91.160.0/22
185.91.188.0/22
185.91.240.0/22
185.92.104.0/22
185.93.144.0/22
185.93.176.0/22
185.93.204.0/22
185.94.20.0/22
185.94.80.0/22
185.94.88.0/22
185.94.132.0/22
185.94.160.0/22
185.95.36.0/22
185.95.52.0/22
185.95.132.0/22
185.95.136.0/22
185.95.144.0/22
185.95.224.0/22
185.95.232.0/22
185.95.236.0/22
185.95.240.0/22
185.96.20.0/22
185.96.96.0/22
185.96.116.0/22
185.96.128.0/22
185.96.204.0/22
185.96.216.0/22
185.97.12.0/22
185.97.108.0/22
185.97.120.0/22
185.97.156.0/22
185.97.216.0/22
185.97.220.0/22
185.97.232.0/22
185.98.8.0/22
185.98.164.0/22
185.99.224.0/22
185.100.12.0/22
185.100.16.0/22
185.100.32.0/22
185.100.80.0/22
185.100.108.0/22
185.100.112.0/22
185.100.116.0/22
185.100.120.0/22
185.100.124.0/22
185.100.164.0/22
185.100.176.0/22
185.100.236.0/22
185.100.252.0/22
185.101.36.0/22
185.101.144.0/22
185.101.212.0/22
185.102.40.0/22
185.102.140.0/22
185.103.52.0/22
185.103.80.0/22
185.103.112.0/22
185.104.24.0/22
185.104.116.0/22
185.105.208.0/22
185.105.240.0/22
185.107.144.0/22
185.107.148.0/22
185.107.184.0/22
185.107.204.0/22
185.109.24.0/22
185.109.56.0/22
185.109.68.0/22
185.109.184.0/22
185.109.188.0/22
185.109.220.0/22
185.110.20.0/22
185.110.116.0/22
185.111.76.0/22
185.111.248.0/22
185.112.4.0/22
185.112.60.0/22
185.112.84.0/22
185.112.88.0/22
185.112.92.0/22
185.112.184.0/22
185.112.196.0/22
185.112.212.0/22
185.114.0.0/22
185.114.80.0/22
185.114.108.0/22
185.114.116.0/22
185.114.232.0/22
185.115.132.0/22
185.116.0.0/22
185.116.84.0/22
185.117.112.0/22
185.117.184.0/22
185.117.216.0/22
185.117.225.0/24
185.118.72.0/22
185.118.184.0/22
185.119.224.0/22
185.119.228.0/22
185.119.244.0/22
185.120.40.0/22
185.120.80.0/22
185.121.32.0/22
185.121.36.0/22
185.121.100.0/22
185.121.148.0/22
185.121.156.0/22
185.121.208.0/22
185.122.24.0/22
185.122.44.0/22
185.122.224.0/22
185.123.8.0/22
185.123.36.0/22
185.123.212.0/22
185.123.232.0/22
185.124.44.0/22
185.124.180.0/22
185.124.252.0/22
185.125.68.0/22
185.125.144.0/22
185.126.140.0/22
185.126.204.0/22
185.127.32.0/22
185.127.36.0/22
185.127.132.0/22
185.127.196.0/22
185.127.212.0/22
185.127.220.0/22
185.127.236.0/22
185.128.28.0/22
185.128.76.0/22
185.128.148.0/22
185.129.88.0/22
185.131.16.0/22
185.131.212.0/22
185.131.248.0/22
185.131.252.0/22
185.132.56.0/22
185.132.68.0/22
185.132.168.0/22
185.132.228.0/22
185.133.92.0/22
185.133.216.0/22
185.133.232.0/22
185.134.8.0/22
185.134.52.0/22
185.134.68.0/22
185.134.140.0/22
185.134.152.0/22
185.134.168.0/22
185.135.92.0/22
185.135.100.0/22
185.135.112.0/22
185.136.124.0/22
185.136.136.0/22
185.137.84.0/22
185.137.158.0/24
185.137.204.0/22
185.137.224.0/22
185.138.36.0/22
185.138.216.0/22
185.139.28.0/22
185.139.48.0/22
185.139.104.0/22
185.139.180.0/22
185.140.152.0/22
185.140.168.0/22
185.141.84.0/22
185.141.172.0/22
185.141.184.0/22
185.141.228.0/22
185.142.20.0/22
185.142.68.0/22
185.142.88.0/22
185.142.120.0/23
185.142.122.0/23
185.142.152.0/22
185.142.168.0/22
185.142.172.0/22
185.142.244.0/22
185.143.152.0/22
185.144.72.0/22
185.144.120.0/22
185.144.212.0/22
185.145.84.0/22
185.145.100.0/22
185.145.192.0/22
185.145.246.0/24
185.146.64.0/24
185.146.128.0/22
185.146.132.0/22
185.146.160.0/22
185.147.116.0/22
185.147.164.0/22
185.148.8.0/22
185.148.100.0/22
185.148.108.0/22
185.148.116.0/22
185.148.152.0/22
185.148.188.0/22
185.148.204.0/22
185.149.32.0/22
185.149.188.0/22
185.150.64.0/22
185.150.228.0/22
185.151.24.0/22
185.151.32.0/22
185.151.92.0/22
185.151.124.0/22
185.151.144.0/22
185.152.40.0/22
185.152.44.0/22
185.152.140.0/22
185.152.148.0/22
185.152.156.0/22
185.152.240.0/22
185.152.252.0/22
185.153.0.0/22
185.153.12.0/22
185.153.76.0/22
185.153.108.0/22
185.153.124.0/22
185.154.44.0/22
185.154.64.0/22
185.154.88.0/22
185.154.236.0/22
185.155.120.0/22
185.155.176.0/22
185.155.196.0/22
185.156.132.0/22
185.156.148.0/22
185.156.192.0/22
185.156.232.0/22
185.156.240.0/22
185.157.24.0/22
185.157.52.0/22
185.157.216.0/22
185.157.228.0/22
185.158.28.0/22
185.158.36.0/22
185.158.88.0/22
185.158.116.0/22
185.158.140.0/22
185.158.188.0/22
185.158.204.0/24
185.158.232.0/22
185.158.236.0/22
185.159.0.0/22
185.159.52.0/22
185.159.60.0/22
185.159.90.0/24
185.159.144.0/22
185.160.120.0/22
185.160.132.0/22
185.161.192.0/22
185.161.220.0/22
185.162.36.0/22
185.162.48.0/22
185.163.48.0/24
185.163.172.0/22
185.164.92.0/22
185.164.144.0/22
185.164.176.0/22
185.164.186.0/23
185.165.56.0/22
185.165.88.0/22
185.167.20.0/22
185.167.52.0/22
185.167.104.0/22
185.167.112.0/22
185.167.183.0/24
185.167.192.0/22
185.167.244.0/22
185.168.24.0/22
185.168.76.0/22
185.168.88.0/22
185.168.96.0/22
185.168.164.0/22
185.168.172.0/22
185.168.176.0/22
185.169.24.0/22
185.169.44.0/22
185.169.176.0/22
185.169.184.0/22
185.169.224.0/22
185.169.236.0/22
185.170.36.0/22
185.170.136.0/22
185.171.36.0/22
185.171.212.0/22
185.172.140.0/22
185.172.180.0/22
185.172.200.0/22
185.172.204.0/22
185.173.84.0/22
185.173.212.0/22
185.173.236.0/22
185.174.0.0/22
185.175.124.0/22
185.176.20.0/22
185.176.200.0/22
185.177.32.0/22
185.177.36.0/22
185.177.192.0/22
185.177.209.0/24
185.177.212.0/22
185.177.244.0/22
185.178.8.0/22
185.178.12.0/22
185.178.92.0/22
185.178.252.0/22
185.179.103.0/24
185.180.120.0/22
185.180.180.0/23
185.180.182.0/23
185.181.92.0/22
185.181.136.0/22
185.182.116.0/22
185.182.140.0/22
185.182.172.0/22
185.182.196.0/22
185.182.208.0/22
185.183.4.0/22
185.183.68.0/22
185.184.36.0/22
185.184.136.0/22
185.184.240.0/22
185.185.44.0/22
185.186.12.0/22
185.186.68.0/22
185.186.92.0/22
185.187.40.0/22
185.187.44.0/23
185.187.46.0/23
185.187.62.0/24
185.187.172.0/22
185.187.220.0/22
185.188.24.0/22
185.188.80.0/22
185.189.60.0/22
185.189.76.0/22
185.190.136.0/22
185.190.160.0/22
185.190.208.0/22
185.190.212.0/22
185.190.216.0/22
185.191.60.0/22
185.191.96.0/22
185.191.104.0/22
185.191.180.0/22
185.192.136.0/22
185.193.0.0/22
185.193.188.0/22
185.193.252.0/22
185.194.4.0/22
185.194.200.0/23
185.194.202.0/23
185.195.128.0/22
185.196.48.0/22
185.196.160.0/22
185.196.164.0/22
185.197.8.0/22
185.197.128.0/22
185.197.140.0/22
185.197.212.0/22
185.197.228.0/22
185.198.36.0/22
185.198.60.0/22
185.198.96.0/22
185.198.116.0/22
185.198.120.0/22
185.198.156.0/22
185.198.208.0/22
185.199.24.0/22
185.199.48.0/22
185.199.72.0/22
185.199.112.0/22
185.200.88.0/22
185.200.148.0/22
185.200.180.0/22
185.201.64.0/22
185.201.76.0/22
185.201.116.0/22
185.201.140.0/22
185.201.184.0/22
185.201.240.0/22
185.202.120.0/22
185.202.128.0/22
185.202.184.0/22
185.202.244.0/22
185.203.8.0/22
185.203.24.0/22
185.203.76.0/22
185.203.104.0/22
185.203.124.0/22
185.203.172.0/22
185.204.84.0/22
185.204.132.0/22
185.204.220.0/22
185.205.8.0/22
185.205.40.0/22
185.205.164.0/22
185.206.8.0/22
185.206.84.0/22
185.207.184.0/22
185.208.16.0/22
185.208.24.0/22
185.208.44.0/22
185.208.104.0/22
185.208.136.0/22
185.208.188.0/22
185.208.232.0/22
185.208.244.0/22
185.210.48.0/22
185.210.112.0/22
185.210.172.0/22
185.210.212.0/22
185.210.248.0/22
185.211.12.0/22
185.211.76.0/22
185.211.80.0/22
185.211.160.0/22
185.212.16.0/22
185.212.152.0/22
185.212.176.0/22
185.213.4.0/22
185.213.20.0/22
185.213.112.0/22
185.213.216.0/22
185.214.0.0/22
185.214.44.0/22
185.214.200.0/22
185.215.140.0/22
185.215.144.0/22
185.215.172.0/22
185.215.192.0/22
185.215.240.0/22
185.216.64.0/22
185.216.88.0/22
185.216.184.0/22
185.217.28.0/22
185.217.228.0/22
185.218.44.0/22
185.218.104.0/22
185.219.0.0/22
185.219.44.0/22
185.219.84.0/22
185.219.116.0/22
185.219.180.0/22
185.219.224.0/22
185.219.232.0/22
185.220.48.0/22
185.220.52.0/22
185.221.12.0/22
185.221.72.0/22
185.221.172.0/22
185.221.240.0/22
185.222.248.0/22
185.223.196.0/22
185.223.200.0/22
185.223.208.0/22
185.224.60.0/22
185.224.104.0/22
185.224.204.0/22
185.225.4.0/22
185.225.60.0/22
185.225.128.0/22
185.225.216.0/22
185.226.164.0/24
185.226.165.0/24
185.227.28.0/22
185.227.120.0/22
185.228.220.0/22
185.229.16.0/22
185.229.100.0/22
185.229.172.0/22
185.229.236.0/22
185.230.80.0/22
185.230.92.0/22
185.230.192.0/22
185.230.232.0/22
185.231.36.0/22
185.231.160.0/22
185.231.208.0/22
185.232.236.0/22
185.233.248.0/22
185.234.164.0/22
185.234.172.0/22
185.234.236.0/22
185.235.20.0/22
185.236.104.0/22
185.238.148.0/22
185.238.156.0/22
185.239.96.0/22
185.240.12.0/22
185.240.68.0/22
185.241.16.0/22
185.241.56.0/22
185.241.64.0/22
185.241.92.0/22
185.241.116.0/22
185.241.144.0/22
185.241.168.0/22
185.241.200.0/22
185.242.12.0/22
185.242.40.0/22
185.242.180.0/22
185.243.36.0/22
185.243.72.0/22
185.243.148.0/22
185.243.192.0/22
185.244.32.0/22
185.244.184.0/22
185.245.76.0/22
185.245.120.0/22
185.245.164.0/22
185.246.8.0/22
185.246.36.0/22
185.246.92.0/22
185.247.212.0/22
185.248.72.0/22
185.248.240.0/22
185.248.244.0/22
185.249.12.0/22
185.249.16.0/22
185.249.92.0/22
185.250.64.0/22
185.250.140.0/22
185.250.144.0/22
185.250.156.0/22
185.250.164.0/22
185.251.60.0/22
185.251.124.0/22
185.251.136.0/22
185.252.16.0/22
185.252.52.0/22
185.253.80.0/22
185.253.200.0/22
185.253.236.0/22
185.254.168.0/22
185.254.228.0/22
185.254.236.0/22
185.255.60.0/22
185.255.184.0/22
188.8.0.0/13
188.64.88.0/21
188.64.120.0/21
188.65.0.0/21
188.65.80.0/21
188.92.24.0/21
188.92.184.0/21
188.94.120.0/21
188.94.144.0/21
188.94.192.0/21
188.95.16.0/21
188.95.72.0/21
188.116.8.0/22
188.116.60.0/22
188.125.96.0/19
188.135.128.0/17
188.152.0.0/15
188.164.128.0/21
188.208.19.0/24
188.209.80.0/20
188.210.239.0/24
188.212.153.0/24
188.213.16.0/24
188.213.40.0/21
188.213.160.0/20
188.214.0.0/22
188.214.29.0/24
188.214.82.0/23
188.214.198.0/24
188.215.20.0/22
188.215.44.0/22
188.215.65.0/24
188.215.94.0/24
188.215.247.0/24
188.215.248.0/24
188.216.0.0/14
188.228.128.0/17
188.240.42.0/24
188.240.44.0/23
188.241.4.0/23
188.241.140.0/23
188.241.153.0/24
188.241.154.0/24
188.241.186.0/24
188.241.190.0/23
188.241.251.0/24
192.5.97.0/24
192.12.47.0/24
192.12.77.0/24
192.12.192.0/23
192.12.194.0/24
192.35.146.0/24
192.41.218.0/24
192.55.101.0/24
192.58.218.0/24
192.65.131.0/24
192.68.176.0/24
192.70.136.0/24
192.82.220.0/24
192.82.221.0/24
192.84.87.0/24
192.84.127.0-192.84.156.255
192.88.196.0/24
192.92.104.0-192.92.106.255
192.92.126.0/24
192.94.212.0/24
192.104.23.0/24
192.106.0.0/16
192.107.51.0-192.107.100.255
192.132.10.0/24
192.132.34.0/24
192.133.28.0/24
192.135.8.0-192.135.37.255
192.135.165.0/24
192.138.183.0/24
192.146.173.0/24
192.146.174.0/24
192.146.175.0/24
192.146.176.0/24
192.146.177.0/24
192.146.178.0/24
192.146.179.0/24
192.146.180.0/24
192.146.181.0/24
192.146.242.0/24
192.147.247.0/24
192.148.193.0/24
192.148.220.0/24
192.149.110.0/24
192.150.146.0/24
192.150.194.0-192.150.196.255
192.152.141.0/24
192.152.166.0/24
192.156.213.0/24
192.157.185.0/24
192.159.77.0/24
192.160.27.0/24
192.160.37.0/24
192.160.156.0/24
192.160.160.0/24
192.166.252.0/24
192.167.0.0/16
192.172.232.0/24
192.188.248.0/24
192.189.154.0/24
192.195.110.0/24
192.207.14.0/24
193.0.157.0/24
193.3.244.0/24
193.5.31.0/24
193.5.39.0/24
193.5.41.0/24
193.5.120.0/24
193.17.45.0/24
193.17.80.0/22
193.22.90.0/24
193.22.136.0/22
193.23.114.0/24
193.24.29.0/24
193.24.36.0/24
193.24.40.0/22
193.25.106.0/23
193.25.108.0/23
193.25.178.0/23
193.25.194.0/24
193.25.196.0/24
193.25.203.0/24
193.25.223.0/24
193.25.255.0/24
193.26.0.0/24
193.26.2.0/24
193.26.12.0/24
193.26.128.0/24
193.27.28.0/22
193.27.202.0/23
193.28.95.0/24
193.31.248.0/22
193.33.18.0/23
193.33.98.0/23
193.33.106.0/23
193.33.112.0/23
193.33.242.0/23
193.33.252.0/23
193.35.4.0/22
193.36.47.0/24
193.36.108.0/22
193.38.132.0/22
193.41.6.0/23
193.41.57.0/24
193.41.84.0/24
193.41.85.0/24
193.41.176.0/22
193.41.198.0/24
193.41.205.0/24
193.41.235.0/24
193.41.236.0/24
193.42.2.0/23
193.42.8.0-193.42.10.255
193.42.13.0/24
193.42.14.0/24
193.42.64.0/19
193.42.133.0/24
193.42.134.0/24
193.42.138.0/24
193.42.139.0/24
193.42.140.0/23
193.42.157.0/24
193.42.160.0-193.42.209.255
193.42.232.0/21
193.43.1.0/24
193.43.2.0/23
193.43.4.0/22
193.43.15.0/24
193.43.16.0/23
193.43.18.0/23
193.43.24.0/24
193.43.34.0/24
193.43.35.0/24
193.43.36.0/24
193.43.38.0/23
193.43.44.0/22
193.43.48.0/20
193.43.73.0/24
193.43.76.0/24
193.43.80.0/21
193.43.96.0/24
193.43.97.0/24
193.43.101.0/24
193.43.104.0/23
193.43.106.0-193.43.108.255
193.43.109.0/24
193.43.111.0-193.43.115.255
193.43.116.0/24
193.43.117.0/24
193.43.120.0/22
193.43.124.0/24
193.43.132.0/23
193.43.137.0/24
193.43.141.0/24
193.43.160.0-193.43.179.255
193.43.184.0/21
193.43.192.0/20
193.43.208.0/24
193.46.20.0/22
193.46.28.0/22
193.46.172.0/22
193.46.180.0/24
193.47.52.0/22
193.47.64.0/22
193.56.200.0/23
193.56.226.0/23
193.57.65.0/24
193.57.72.0/22
193.57.76.0/24
193.57.90.0/24
193.57.93.0/24
193.58.36.0/22
193.58.239.0/24
193.70.128.0/17
193.76.0.0/16
193.93.108.0/22
193.104.76.0/24
193.104.80.0/24
193.104.86.0/24
193.104.93.0/24
193.104.94.0/24
193.104.137.0/24
193.104.223.0/24
193.104.250.0/24
193.105.79.0/24
193.105.228.0/24
193.106.180.0/22
193.108.60.0/22
193.108.186.0/24
193.108.204.0/24
193.108.205.0/24
193.109.32.0/21
193.109.40.0/21
193.109.90.0/24
193.109.104.0/22
193.109.112.0/24
193.109.200.0/21
193.109.233.0/24
193.110.83.0/24
193.110.151.0/24
193.111.20.0/23
193.111.46.0/24
193.111.70.0/23
193.138.4.0/23
193.138.120.0/23
193.138.160.0/22
193.142.196.0/22
193.143.249.0/24
193.148.38.0/23
193.150.60.0/22
193.150.112.0/24
193.160.240.0/22
193.161.116.0/22
193.168.52.0/23
193.168.56.0/23
193.168.132.0/22
193.168.160.0/22
193.169.20.0/24
193.169.56.0/23
193.169.150.0/23
193.169.162.0/23
193.169.242.0/23
193.176.238.0/24
193.176.246.0/24
193.176.252.0/24
193.176.254.0/24
193.178.124.0/22
193.178.128.0/24
193.178.137.0/24
193.178.139.0/24
193.178.142.0/24
193.178.204.0/22
193.178.216.0/24
193.178.224.0/23
193.178.234.0/23
193.178.244.0/22
193.178.252.0/22
193.187.74.0/23
193.188.28.0/22
193.189.112.0/23
193.193.0.0/19
193.193.172.0/23
193.193.183.0/24
193.194.16.0-193.194.20.255
193.194.129.0/24
193.200.3.0/24
193.200.26.0/23
193.200.48.0/23
193.200.213.0/24
193.201.28.0/23
193.201.40.0/24
193.201.46.0/24
193.201.99.0/24
193.201.171.0/24
193.202.31.0/24
193.202.76.0/24
193.203.228.0/22
193.203.232.0/22
193.204.0.0/16
193.205.0.0/16
193.206.0.0/16
193.207.0.0/16
193.219.29.0/24
193.219.30.0/24
193.219.102.0/24
193.219.109.0/24
193.222.136.0/24
193.223.96.0/23
193.223.110.0/23
193.227.64.0/19
193.227.104.0/24
193.227.212.0/22
193.228.56.0/22
193.238.76.0/22
193.238.100.0/22
193.238.136.0/22
193.239.52.0/22
193.239.203.0/24
193.254.12.0/22
193.254.24.0-193.254.26.255
193.254.240.0/23
194.0.16.0/24
194.0.139.0/24
194.0.140.0/24
194.0.141.0/24
194.0.159.0/24
194.0.168.0/24
194.0.243.0/24
194.0.248.0/24
194.1.160.0/24
194.1.177.0/24
194.1.179.0/24
194.1.208.0/24
194.4.40.0/22
194.4.144.0/22
194.5.254.0/23
194.8.12.0/23
194.9.8.0/23
194.9.18.0/23
194.9.220.0/23
194.20.0.0/15
194.28.116.0/22
194.29.204.0/24
194.31.108.0/22
194.31.204.0/23
194.31.222.0/23
194.32.100.0/22
194.32.172.0/22
194.34.196.0/23
194.35.76.0/23
194.35.176.0/22
194.36.72.0/22
194.37.252.0/24
194.38.60.0/22
194.39.144.0/22
194.40.208.0/23
194.41.4.0/22
194.41.9.0/24
194.41.36.0/23
194.41.58.0/23
194.42.41.0-194.42.42.255
194.48.180.0/22
194.49.71.0/24
194.49.76.0/24
194.49.84.0/24
194.49.93.0/24
194.53.152.0/22
194.53.176.0/22
194.53.180.0/22
194.55.44.0/22
194.55.148.0/22
194.56.88.0/22
194.59.208.0/22
194.60.212.0/22
194.62.60.0/22
194.62.200.0/22
194.69.60.0/22
194.69.192.0/23
194.76.116.0/22
194.79.56.0/22
194.79.192.0/19
194.93.40.0/22
194.105.48.0/21
194.105.57.0/24
194.105.61.0/24
194.110.20.0/23
194.110.28.0/23
194.110.56.0/22
194.110.71.0/24
194.113.88.0/22
194.116.0.0/20
194.116.16.0/23
194.116.18.0/23
194.116.20.0/22
194.116.24.0/22
194.116.28.0/22
194.116.32.0/20
194.116.48.0/20
194.116.64.0/21
194.116.72.0/23
194.116.74.0/23
194.116.76.0/22
194.116.80.0/23
194.116.82.0/24
194.116.83.0/24
194.116.84.0/24
194.116.85.0/24
194.116.86.0/23
194.116.88.0/22
194.116.92.0/24
194.116.93.0/24
194.116.94.0/23
194.116.96.0/22
194.116.100.0/24
194.116.101.0/24
194.116.102.0/23
194.116.104.0/24
194.116.105.0/24
194.116.106.0/23
194.116.108.0/22
194.116.112.0/21
194.116.120.0/22
194.116.124.0/23
194.116.126.0/24
194.116.127.0/24
194.116.164.0/23
194.119.192.0/19
194.124.72.0/22
194.125.242.0/23
194.126.148.0/23
194.143.142.0/23
194.145.231.0/24
194.146.100.0/22
194.146.164.0/22
194.147.24.0/22
194.149.232.0/23
194.149.244.0/24
194.150.162.0/23
194.152.48.0/23
194.153.131.0/24
194.153.172.0/22
194.153.187.0/24
194.153.192.0/20
194.153.208.0/22
194.153.212.0/23
194.156.8.0/22
194.156.108.0/22
194.156.180.0/22
194.156.190.0/23
194.156.198.0/23
194.165.36.0/24
194.176.126.0/24
194.177.64.0/19
194.177.96.0/19
194.179.128.0/17
194.180.6.0/23
194.180.20.0/24
194.180.25.0/24
194.180.26.0/23
194.180.52.0/24
194.180.55.0/24
194.182.64.0/19
194.182.104.0/22
194.182.110.0/23
194.183.0.0/19
194.184.0.0/16
194.185.0.0/19
194.185.32.0/19
194.185.64.0/19
194.185.96.0/19
194.185.128.0/17
194.187.124.0/22
194.187.172.0/22
194.187.252.0/22
194.213.14.0/24
194.242.61.0/24
194.242.192.0/19
194.242.224.0/19
194.243.0.0/16
194.244.0.0/16
194.246.0.0/19
194.246.126.0/23
194.247.28.0/23
194.247.56.0/24
195.2.218.0/23
195.7.16.0/22
195.14.28.0/24
195.14.102.0/23
195.22.192.0/19
195.28.8.0/23
195.31.0.0/16
195.32.0.0/17
195.35.99.0/24
195.35.104.64-195.35.104.255
195.36.0.0/18
195.39.194.0/23
195.39.202.0/23
195.39.250.0/23
195.39.252.0/23
195.43.129.0/24
195.43.160.0/19
195.45.0.0/16
195.47.199.0/24
195.47.221.0/24
195.47.232.0/24
195.47.251.0/24
195.54.60.0/23
195.60.89.128/25
195.60.128.0/19
195.60.190.0/23
195.62.160.0/19
195.62.224.0/19
195.64.188.0/23
195.66.8.0/21
195.69.68.0/22
195.72.192.0/19
195.74.75.0/24
195.74.81.0/24
195.78.192.0/19
195.85.228.0/24
195.88.4.0/23
195.88.6.0/23
195.88.230.0/23
195.88.234.0/23
195.90.108.0/23
195.93.168.0/23
195.93.254.0/23
195.94.128.0/18
195.95.142.0/24
195.95.230.0/23
195.96.192.0/19
195.103.0.0/16
195.110.96.0/19
195.110.128.0/19
195.120.0.0/16
195.128.234.0/23
195.130.195.0/24
195.130.213.0/24
195.130.220.0/24
195.130.224.0/19
195.134.176.0/21
195.135.200.0/22
195.137.128.0/19
195.160.208.0/22
195.162.92.0/22
195.177.112.0/22
195.178.28.0/23
195.181.176.0/20
195.182.210.0/23
195.182.224.0/19
195.184.74.0/24
195.184.75.0/24
195.190.21.0/24
195.191.84.0/23
195.200.94.0/23
195.200.202.0/24
195.206.0.0/19
195.206.246.0/23
195.210.40.0/23
195.210.64.0/19
195.216.202.0/23
195.223.0.0/16
195.225.40.0/23
195.225.168.0/22
195.225.224.0/22
195.226.193.0/24
195.230.192.0/18
195.231.0.0/17
195.234.92.0/22
195.234.171.0/24
195.234.232.0/22
195.238.80.0/23
195.238.235.0/24
195.242.181.0/24
195.245.67.0/24
195.245.116.0/23
195.246.192.0-195.246.196.255
195.246.208.0/21
195.246.220.0/22
195.250.0.0/20
195.250.34.0/24
195.250.224.0/19
195.254.224.0/19
198.17.117.0/24
199.103.119.0/24
204.79.130.0/23
204.79.132.0/24
204.79.240.0/24
204.231.237.0/24
212.3.160.0/19
212.4.0.0/19
212.6.50.0/24
212.6.59.0/24
212.6.60.0/24
212.6.63.0/24
212.7.64.0/19
212.14.128.0/19
212.15.64.0/20
212.17.192.0/19
212.19.96.0/19
212.22.128.0/19
212.24.0.0/19
212.25.160.0/19
212.28.160.0/19
212.29.128.0/19
212.31.224.0/19
212.34.192.0/19
212.35.192.0/19
212.38.32.0/19
212.39.0.0/19
212.43.96.0/19
212.45.96.0/21
212.45.128.0/19
212.46.64.0/19
212.46.160.0/19
212.47.32.0/19
212.48.0.0/19
212.48.160.0/19
212.52.64.0/18
212.54.224.0/19
212.66.96.0/19
212.66.224.0/19
212.69.136.0/21
212.70.224.0/19
212.77.64.0/19
212.78.0.0/19
212.84.32.0/21
212.84.48.0/21
212.90.0.0/19
212.91.32.0/19
212.91.64.0/19
212.94.128.0/19
212.97.32.0/19
212.102.64.0/19
212.102.98.0/24
212.102.104.0/24
212.102.109.0/24
212.102.110.0/24
212.102.122.0/24
212.103.192.0/19
212.104.0.0/18
212.110.0.0/19
212.110.32.0/19
212.112.64.0/19
212.115.64.0/19
212.115.96.0/22
212.121.64.0/19
212.123.64.0/19
212.124.160.0/19
212.131.0.0/16
212.141.0.0/17
212.141.128.0/17
212.162.64.0/18
212.165.32.0/19
212.171.0.0/16
212.177.0.0/16
212.183.160.0/19
212.189.128.0/17
212.210.0.0/16
212.216.0.0/16
212.237.0.0/18
212.237.252.0/24
212.239.0.0/17
212.245.0.0/16
213.21.128.0/18
213.26.0.0/16
213.32.208.0/20
213.45.0.0/16
213.82.0.0/16
213.92.0.0/17
213.109.184.0/22
213.134.64.0/19
213.136.128.0/19
213.136.160.0/19
213.137.32.0/19
213.138.216.0/22
213.140.0.0/19
213.144.64.0/19
213.144.160.0/19
213.149.192.0/19
213.152.192.0/19
213.156.32.0/19
213.158.64.0/19
213.159.26.0/23
213.167.232.0/21
213.171.96.0/19
213.171.160.0/19
213.174.160.0/19
213.175.0.0/19
213.178.192.0/20
213.178.208.0/21
213.178.216.0/22
213.178.220.0/23
213.178.222.0/23
213.182.64.0/19
213.183.128.0/19
213.184.76.0/22
213.187.0.0/19
213.198.128.0/18
213.199.0.0/19
213.203.128.0/18
213.204.0.0/19
213.205.0.0/19
213.205.32.0/19
213.209.0.0/18
213.209.160.0/19
213.209.192.0/18
213.212.128.0/18
213.213.0.0/18
213.213.64.0/18
213.215.128.0/18
213.215.192.0/18
213.217.4.0/22
213.217.128.0/18
213.218.32.0/19
213.225.192.0/18
213.226.104.0/22
213.230.128.0/19
213.233.0.0/18
213.234.128.0/18
213.243.192.0/18
213.254.0.0/19
213.255.0.0/18
213.255.64.0/18
217.9.64.0/20
217.11.0.0/20
217.11.80.0/20
217.12.128.0/20
217.12.160.0/20
217.12.176.0/20
217.15.208.0/20
217.18.0.0/20
217.18.96.0/20
217.18.112.0/20
217.19.144.0/20
217.20.0.0/20
217.20.248.0/22
217.22.208.0/20
217.22.224.0/20
217.22.240.0/20
217.26.80.0/20
217.26.176.0/22
217.26.180.0/22
217.27.64.0/19
217.27.112.0/20
217.28.112.0/20
217.29.64.0/20
217.29.160.0/20
217.30.0.0/22
217.31.112.0/20
217.56.0.0/14
217.61.0.0/18
217.61.96.0/19
217.61.160.0/20
217.61.254.0/24
217.64.192.0/20
217.65.64.0/20
217.70.144.0/20
217.71.64.0/20
217.72.32.0/21
217.72.40.0/21
217.72.96.0/20
217.73.208.0/20
217.73.224.0/20
217.76.208.0/20
217.77.80.0/20
217.112.96.0/20
217.113.208.0/20
217.115.16.0/20
217.118.0.0/20
217.118.144.0/20
217.118.240.0/20
217.133.0.0/16
217.141.0.0/16
217.146.192.0/20
217.147.128.0/20
217.147.144.0/20
217.148.112.0/20
217.149.80.0/20
217.168.224.0/20
217.169.96.0/20
217.169.112.0/20
217.170.224.0/20
217.171.32.0/20
217.171.64.0/20
217.171.160.0/20
217.171.232.0/21
217.172.0.0/20
217.172.192.0/19
217.174.112.0/20
217.174.128.0/20
217.175.48.0/20
217.194.0.0/20
217.194.176.0/20
217.196.128.0/20
217.199.0.0/20
217.199.16.0/20
217.200.0.0/14
217.220.0.0/16
217.221.0.0/16
217.222.0.0/17
217.222.128.0/17
217.223.0.0/16
